first_name,last_name,amount,project_name,reward,reward_quantity,,
Jean,Dupont,10,Event sur Youpi, Calin, ...,Calin,2
jean,Dupont,15,Pièce de théatre sur le théme du Chocapic,Packet de céréale,1,,
Jean, dupont,45,Exposition sur la bananne,Bananne,3,,
Rose,Marie,100,Event sur Youpi, Calin, ...,Place en VIP,1
Jean,Poilu,33,Pièce de théatre sur le thème du Chocapic,Packet de céréale,2,,
Julie,Cerise,5,Event sur Youpi, Calin, ...,Calin,1
Julie,Cerise,15,Test,Salut,15,,
